{
  "defaults": {
    "nanonationSrc": "http://127.0.0.1/",
    "mycityApiUrl": "http://mycityapi.elasticbeanstalk.com/",
    "eventCalendarUrl": "http://mycityapi.elasticbeanstalk.com/events/series/",
    "mycityApiUser": "test",
    "mycityApiPass": "password"
  },

  "local": {
  },

  "development": {
  },

  "production": {
  }
}